course_name,lecturer_name,start_time,end_time,venue,tutor_name,compulsory,,,
ALG,LPK,800,1000,Lecture Hall,,N,Jayson,Edwin,
PSD,AF,1400,1600,Lab,,Y,Jayson,,
ALG,LPK,1400,1600,Lab,,N,WinWin,,
PSD,AF,800,1000,Lecture Hall,,Y,Jayson,Edwin,WinWin
PL,Steven,1400,1600,Lab,,Y,Edwin,Jayson,
PSD3,Boatman,1400,1600,ferry,NULL,Y,,,
PSD3,Boatman,1400,1600,ferry,NULL,Y,,,
